<?xml version="1.0" encoding="UTF-8" standalone="no"?>
<svg
   xmlns:dc="http://purl.org/dc/elements/1.1/"
   xmlns:cc="http://creativecommons.org/ns#"
   xmlns:rdf="http://www.w3.org/1999/02/22-rdf-syntax-ns#"
   xmlns:svg="http://www.w3.org/2000/svg"
   xmlns="http://www.w3.org/2000/svg"
   xmlns:sodipodi="http://sodipodi.sourceforge.net/DTD/sodipodi-0.dtd"
   xmlns:inkscape="http://www.inkscape.org/namespaces/inkscape"
   style="shape-rendering:auto"
   height="96"
   width="96"
   version="1.1"
   viewBox="0 0 96 96"
   id="svg4190"
   sodipodi:docname="icon.svg"
   inkscape:version="0.92.2 5c3e80d, 2017-08-06">
  <metadata
     id="metadata4194">
    <rdf:RDF>
      <cc:Work
         rdf:about="">
        <dc:format>image/svg+xml</dc:format>
        <dc:type
           rdf:resource="http://purl.org/dc/dcmitype/StillImage" />
        <dc:title></dc:title>
      </cc:Work>
    </rdf:RDF>
  </metadata>
  <sodipodi:namedview
     pagecolor="#ffffff"
     bordercolor="#666666"
     borderopacity="1"
     objecttolerance="10"
     gridtolerance="10"
     guidetolerance="10"
     inkscape:pageopacity="0"
     inkscape:pageshadow="2"
     inkscape:window-width="1920"
     inkscape:window-height="1015"
     id="namedview4192"
     showgrid="false"
     inkscape:zoom="5.2421875"
     inkscape:cx="67.723826"
     inkscape:cy="25.489122"
     inkscape:window-x="0"
     inkscape:window-y="0"
     inkscape:window-maximized="1"
     inkscape:current-layer="svg4190" />
  <desc
     id="desc4141">Loudspeaker</desc>
  <!-- Authors: Graphic design: Jeff Bonham (silsor) / SVG Code: Gennaro Prota
      License: See http://en.wikipedia.org/wiki/Image:Sound-icon.svg -->
  <defs
     id="defs4176">
    <style
       type="text/css"
       id="style4143"><![CDATA[
    .basket      {fill:#191919;fill-opacity:0.9}
    .wave_outer  {fill:#7f7f7f;fill-opacity:0.4}
    .wave_middle {fill:#4c4c4c;fill-opacity:0.6}
    .wave_inner  {fill:#191919;fill-opacity:0.7}
    .magnet      {fill:url(#id0)}
    .diaphragm   {fill:url(#id1)}
    .surround    {fill:url(#id2)}
    .in          {fill:url(#id3)}
    .out         {fill:url(#id4)}
   ]]></style>
    <linearGradient
       id="id0"
       y2="22"
       gradientUnits="userSpaceOnUse"
       x2="21.784"
       y1="74.002998"
       x1="21.784">
      <stop
         stop-color="#fff"
         offset="0"
         id="stop4145" />
      <stop
         stop-color="#aaa9a9"
         offset="1"
         id="stop4147" />
    </linearGradient>
    <linearGradient
       id="id1"
       y2="48"
       gradientUnits="userSpaceOnUse"
       x2="14"
       y1="48"
       x1="60">
      <stop
         stop-color="#6b6b6b"
         offset="0"
         id="stop4150" />
      <stop
         stop-color="#909090"
         offset=".4"
         id="stop4152" />
      <stop
         stop-color="#fff"
         offset="1"
         id="stop4154" />
    </linearGradient>
    <linearGradient
       id="id2"
       y2="48"
       gradientUnits="userSpaceOnUse"
       x2="12"
       y1="48"
       x1="62">
      <stop
         stop-color="#dededd"
         offset="0"
         id="stop4157" />
      <stop
         stop-color="#c4c4c3"
         offset=".32157"
         id="stop4159" />
      <stop
         stop-color="#7a7a7a"
         offset="1"
         id="stop4161" />
    </linearGradient>
    <linearGradient
       id="id3"
       y2="46.715"
       gradientUnits="userSpaceOnUse"
       x2="32.773998"
       y1="46.715"
       x1="45.367001">
      <stop
         stop-color="#fff"
         offset="0"
         id="stop4164" />
      <stop
         stop-color="#d4d4d4"
         offset=".32157"
         id="stop4166" />
      <stop
         stop-color="#c2c1c1"
         offset="1"
         id="stop4168" />
    </linearGradient>
    <linearGradient
       id="id4"
       y2="48.000999"
       gradientUnits="userSpaceOnUse"
       x2="24.023001"
       y1="48.000999"
       x1="47.978001">
      <stop
         stop-color="#c3c3c3"
         offset="0"
         id="stop4171" />
      <stop
         stop-color="#555"
         offset="1"
         id="stop4173" />
    </linearGradient>
  </defs>
  <g
     id="speaker_icon">
    <path
       id="bottom_plate"
       d="M 21.345,20 C 9.576,20 0,32.561 0,47.999 0,63.439 9.5758,76 21.345,76 33.109,76 42.681,63.44 42.681,47.999 42.681,32.562 33.1094,20 21.345,20 Z"
       class="basket"
       inkscape:connector-curvature="0"
       style="fill:#191919;fill-opacity:0.9" />
    <path
       id="magnet"
       d="M 21.785,74.003 C 10.857,74.003 2,62.364 2,48 2,33.638 10.8562,22 21.785,22 c 10.924,0 19.782,11.638 19.782,26 0,14.362 -8.858,26.003 -19.782,26.003 z"
       class="magnet"
       inkscape:connector-curvature="0"
       style="fill:url(#id0)" />
    <path
       id="basket"
       d="M 37,0 C 22.113,0 10.002,21.088 10.002,47.007 10.002,72.929 22.114,96 37,96 51.888,96.001134 64,72.93 64,47.007 64,21.088 51.889,0 37,0 Z"
       class="basket"
       inkscape:connector-curvature="0"
       style="fill:#191919;fill-opacity:0.9" />
    <path
       id="surround"
       d="M 37,91.999 C 23.192,91.999 11.999,72.297 11.999,47.998 11.999,23.7 23.192,4 37,4 50.807,4 62,23.701 62,47.998 62,72.297 50.808,91.999 37,91.999 Z"
       class="surround"
       inkscape:connector-curvature="0"
       style="fill:url(#id2)" />
    <path
       id="diaphragm"
       d="M 37,90 C 24.299,90 14,71.196 14,48 14,24.803 24.299,6.001 37,6.001 49.703,6.001 60,24.805 60,48 60,71.197 49.703,90 37,90 Z"
       class="diaphragm"
       inkscape:connector-curvature="0"
       style="fill:url(#id1)" />
    <g
       id="dust_cup">
      <ellipse
         id="in"
         rx="6.2965999"
         ry="10.554"
         class="in"
         cy="46.715"
         cx="39.07"
         style="fill:url(#id3)" />
      <path
         id="out"
         d="M 36,68.063 C 29.3847,68.063 24.022,59.0802 24.022,48 24.022,36.921 29.384,27.94 36,27.94 c 6.6142,0 11.978,8.9813 11.978,20.06 0,11.08 -5.3639,20.063 -11.978,20.063 z"
         class="out"
         inkscape:connector-curvature="0"
         style="fill:url(#id4)" />
    </g>
    <path
       id="wave_inner"
       d="m 77.044,16.433 c 14.542,15.731 14.675,43.886 0,62.715 -3.8048,1.9642 -10.434,0.21959 -8.7855,-2.0999 11.962,-16.541 11.821,-44.668 0,-58.27 -1.6301,-2.3913 6.3632,-3.4397 8.7855,-2.3459 z"
       class="wave_inner"
       inkscape:connector-curvature="0"
       style="fill:#191919;fill-opacity:0.7" />
  </g>
</svg>
